// Jest Snapshot v1, https://goo.gl/fbAQLP

exports[`<Home /> Should match snapshot 1`] = `
<View
  style={
    Object {
      "alignItems": "center",
      "flex": 1,
    }
  }
  testID="wrapper"
>
  <Image
    source={1}
    style={
      Object {
        "height": 200,
        "marginVertical": 100,
        "width": 200,
      }
    }
  />
  <View
    accessible={true}
    focusable={true}
    onClick={[Function]}
    onResponderGrant={[Function]}
    onResponderMove={[Function]}
    onResponderRelease={[Function]}
    onResponderTerminate={[Function]}
    onResponderTerminationRequest={[Function]}
    onStartShouldSetResponder={[Function]}
    style={
      Object {
        "alignItems": "center",
        "backgroundColor": "#9cf0ff",
        "borderColor": "#83c7d4",
        "borderRadius": 5,
        "borderWidth": 1,
        "flexDirection": "row",
        "justifyContent": "flex-start",
        "marginVertical": 5,
        "opacity": 1,
        "padding": 10,
        "width": "50%",
      }
    }
    testID="buttonComponent"
  >
    <Text />
    <Text
      style={
        Object {
          "marginLeft": 25,
        }
      }
      testID="buttonTitle"
    >
      Start new Game
    </Text>
  </View>
  <View
    accessible={true}
    focusable={true}
    onClick={[Function]}
    onResponderGrant={[Function]}
    onResponderMove={[Function]}
    onResponderRelease={[Function]}
    onResponderTerminate={[Function]}
    onResponderTerminationRequest={[Function]}
    onStartShouldSetResponder={[Function]}
    style={
      Object {
        "alignItems": "center",
        "backgroundColor": "#9cf0ff",
        "borderColor": "#83c7d4",
        "borderRadius": 5,
        "borderWidth": 1,
        "flexDirection": "row",
        "justifyContent": "flex-start",
        "marginVertical": 5,
        "opacity": 1,
        "padding": 10,
        "width": "50%",
      }
    }
    testID="buttonComponent"
  >
    <Text />
    <Text
      style={
        Object {
          "marginLeft": 25,
        }
      }
      testID="buttonTitle"
    >
      Available Games
    </Text>
  </View>
</View>
`;
